{
  "artifactGenerations" : [ ],
  "artifactId" : "test-create",
  "groupId" : "org.finos.legend.test",
  "metamodelDependencies" : [ ],
  "projectDependencies" : [ ],
  "projectId" : "48132795",
  "projectStructureVersion" : {
    "extensionVersion" : 2,
    "version" : 12
  }
}